^D:\ANUL 2\LFC\CURS\TEMA 4 MINIMIZARE AFD\TEMA 4 MINIMIZARE AFD\AFD.CPP|D:\ANUL 2\LFC\CURS\TEMA 4 MINIMIZARE AFD\TEMA 4 MINIMIZARE AFD\MINIMIZAREAFD.CPP
D:\ANUL 2\LFC\CURS\TEMA 4 MINIMIZARE AFD\TEMA 4 MINIMIZARE AFD\DEBUG\VC142.PDB
D:\ANUL 2\LFC\CURS\TEMA 4 MINIMIZARE AFD\TEMA 4 MINIMIZARE AFD\DEBUG\VC142.IDB
D:\ANUL 2\LFC\CURS\TEMA 4 MINIMIZARE AFD\TEMA 4 MINIMIZARE AFD\DEBUG\MINIMIZAREAFD.OBJ
D:\ANUL 2\LFC\CURS\TEMA 4 MINIMIZARE AFD\TEMA 4 MINIMIZARE AFD\DEBUG\AFD.OBJ
^D:\ANUL 2\LFC\CURS\TEMA 4 MINIMIZARE AFD\TEMA 4 MINIMIZARE AFD\AFD.CPP|D:\ANUL 2\LFC\CURS\TEMA 4 MINIMIZARE AFD\TEMA 4 MINIMIZARE AFD\MAIN.CPP|D:\ANUL 2\LFC\CURS\TEMA 4 MINIMIZARE AFD\TEMA 4 MINIMIZARE AFD\MINIMIZAREAFD.CPP
D:\ANUL 2\LFC\CURS\TEMA 4 MINIMIZARE AFD\TEMA 4 MINIMIZARE AFD\DEBUG\VC142.PDB
D:\ANUL 2\LFC\CURS\TEMA 4 MINIMIZARE AFD\TEMA 4 MINIMIZARE AFD\DEBUG\VC142.IDB
D:\ANUL 2\LFC\CURS\TEMA 4 MINIMIZARE AFD\TEMA 4 MINIMIZARE AFD\DEBUG\MAIN.OBJ
D:\ANUL 2\LFC\CURS\TEMA 4 MINIMIZARE AFD\TEMA 4 MINIMIZARE AFD\DEBUG\AFD.OBJ
^D:\ANUL 2\LFC\CURS\TEMA 4 MINIMIZARE AFD\TEMA 4 MINIMIZARE AFD\AFD.CPP
D:\ANUL 2\LFC\CURS\TEMA 4 MINIMIZARE AFD\TEMA 4 MINIMIZARE AFD\DEBUG\AFD.OBJ
^D:\ANUL 2\LFC\CURS\TEMA 4 MINIMIZARE AFD\TEMA 4 MINIMIZARE AFD\MAIN.CPP|D:\ANUL 2\LFC\CURS\TEMA 4 MINIMIZARE AFD\TEMA 4 MINIMIZARE AFD\MINIMIZAREAFD.CPP
D:\ANUL 2\LFC\CURS\TEMA 4 MINIMIZARE AFD\TEMA 4 MINIMIZARE AFD\DEBUG\VC142.PDB
D:\ANUL 2\LFC\CURS\TEMA 4 MINIMIZARE AFD\TEMA 4 MINIMIZARE AFD\DEBUG\VC142.IDB
D:\ANUL 2\LFC\CURS\TEMA 4 MINIMIZARE AFD\TEMA 4 MINIMIZARE AFD\DEBUG\MINIMIZAREAFD.OBJ
D:\ANUL 2\LFC\CURS\TEMA 4 MINIMIZARE AFD\TEMA 4 MINIMIZARE AFD\DEBUG\MAIN.OBJ
^D:\ANUL 2\LFC\CURS\TEMA 4 MINIMIZARE AFD\TEMA 4 MINIMIZARE AFD\MAIN.CPP
D:\ANUL 2\LFC\CURS\TEMA 4 MINIMIZARE AFD\TEMA 4 MINIMIZARE AFD\DEBUG\VC142.PDB
^D:\ANUL 2\LFC\CURS\TEMA 4 MINIMIZARE AFD\TEMA 4 MINIMIZARE AFD\MINIMIZAREAFD.CPP
D:\ANUL 2\LFC\CURS\TEMA 4 MINIMIZARE AFD\TEMA 4 MINIMIZARE AFD\DEBUG\VC142.PDB
