{
  "project_info": {
    "project_number": "21685862395",
    "firebase_url": "https://aplicatiebrasov.firebaseio.com",
    "project_id": "aplicatiebrasov",
    "storage_bucket": "aplicatiebrasov.appspot.com"
  },
  "client": [
    {
      "client_info": {
        "mobilesdk_app_id": "1:21685862395:android:5fafd89fadaf91d0f0155e",
        "android_client_info": {
          "package_name": "com.example.aplicatiebrasov"
        }
      },
      "oauth_client": [
        {
          "client_id": "21685862395-i584snuncnhlg1l5qfhf8n6vg4i32bg3.apps.googleusercontent.com",
          "client_type": 1,
          "android_info": {
            "package_name": "com.example.aplicatiebrasov",
            "certificate_hash": "ac30a9dbd90765d23de7fd88e52a19fc977f41f1"
          }
        },
        {
          "client_id": "21685862395-7gf2fiod3n66bg4d6bpocjbhpvmbmfq9.apps.googleusercontent.com",
          "client_type": 3
        }
      ],
      "api_key": [
        {
          "current_key": "AIzaSyBb-I3Vs9U26f5jlC8SyDhKkymnqv5NsK4"
        }
      ],
      "services": {
        "appinvite_service": {
          "other_platform_oauth_client": [
            {
              "client_id": "21685862395-7gf2fiod3n66bg4d6bpocjbhpvmbmfq9.apps.googleusercontent.com",
              "client_type": 3
            }
          ]
        }
      }
    }
  ],
  "configuration_version": "1"
}