^D:\ANUL 2\LFC\CURS\TEMA 1 GRAMATICI\TEMA 1 GRAMATICI\DEBUG\GRAMATICI.OBJ|D:\ANUL 2\LFC\CURS\TEMA 1 GRAMATICI\TEMA 1 GRAMATICI\DEBUG\MAIN.OBJ
D:\ANUL 2\LFC\CURS\TEMA 1 GRAMATICI\DEBUG\TEMA 1 GRAMATICI.EXE
D:\ANUL 2\LFC\CURS\TEMA 1 GRAMATICI\DEBUG\TEMA 1 GRAMATICI.ILK
D:\ANUL 2\LFC\CURS\TEMA 1 GRAMATICI\DEBUG\TEMA 1 GRAMATICI.PDB
