^D:\ANUL 2\LFC\CURS\TEMA 1 GRAMATICI\TEMA 1 GRAMATICI\DEBUG\GRAMATICI.OBJ|D:\ANUL 2\LFC\CURS\TEMA 1 GRAMATICI\TEMA 1 GRAMATICI\DEBUG\MAIN.OBJ
/OUT:"D:\ANUL 2\LFC\CURS\TEMA 1 GRAMATICI\DEBUG\TEMA 1 GRAMATICI.EXE" /INCREMENTAL /NOLOGO KERNEL32.LIB USER32.LIB GDI32.LIB WINSPOOL.LIB COMDLG32.LIB ADVAPI32.LIB SHELL32.LIB OLE32.LIB OLEAUT32.LIB UUID.LIB ODBC32.LIB ODBCCP32.LIB /MANIFEST /MANIFESTUAC:"level='asInvoker' uiAccess='false'" /manifest:embed /DEBUG:FASTLINK /PDB:"D:\ANUL 2\LFC\CURS\TEMA 1 GRAMATICI\DEBUG\TEMA 1 GRAMATICI.PDB" /SUBSYSTEM:CONSOLE /TLBID:1 /DYNAMICBASE /NXCOMPAT /IMPLIB:"D:\ANUL 2\LFC\CURS\TEMA 1 GRAMATICI\DEBUG\TEMA 1 GRAMATICI.LIB" /MACHINE:X86 DEBUG\GRAMATICI.OBJ
DEBUG\MAIN.OBJ
